<?xml version="1.0" encoding="utf-8"?>
<!-- Generator: Adobe Illustrator 22.0.1, SVG Export Plug-In . SVG Version: 6.00 Build 0)  -->
<svg version="1.1" id="Layer_1" xmlns="http://www.w3.org/2000/svg" xmlns:xlink="http://www.w3.org/1999/xlink" x="0px" y="0px"
	 viewBox="0 0 150 150" style="enable-background:new 0 0 150 150;" xml:space="preserve">
<style type="text/css">
	.st0{fill:#E6E7E8;}
	.st1{fill:#BCBEC0;}
	.st2{fill:#F3F3F3;}
	.st3{fill:#F3705B;}
	.st4{fill:#FFD15D;}
	.st5{fill:none;stroke:#808285;stroke-width:0.5;stroke-miterlimit:10;}
	.st6{fill:none;stroke:#808285;stroke-width:2;stroke-miterlimit:10;}
	.st7{fill:#94CB7A;}
	.st8{font-family:'HindMadurai-Bold';}
	.st9{font-size:4.502px;}
	.st10{font-size:8.9604px;}
</style>
<path class="st0" d="M134.2,125.7l-6.5-36.1H22.2l-6.5,36.1c-1.5,3.5,1,7.2,4.7,7.2h109C133.2,133.1,135.7,129.2,134.2,125.7z"/>
<path class="st1" d="M15.3,127.9c0,2.7,2.2,5.2,5.2,5.2h109c3,0,5.2-2.5,5.2-5.2H15.3z"/>
<path class="st1" d="M122.8,17.1H27.2c-2.7,0-5,2.2-5,5v67.5H128V22.1C127.8,19.4,125.5,17.1,122.8,17.1z"/>
<rect x="28.2" y="23.4" class="st0" width="93.3" height="60"/>
<rect x="28.4" y="23.5" class="st2" width="93.3" height="9.5"/>
<polygon class="st1" points="89.7,122.7 60.3,122.7 62.6,109.7 87.4,109.7 "/>
<circle class="st3" cx="114.3" cy="28.3" r="2.2"/>
<circle class="st4" cx="107.4" cy="28.3" r="2.2"/>
<line class="st5" x1="88" y1="35.3" x2="88" y2="76"/>
<line class="st6" x1="95.5" y1="39.6" x2="111" y2="39.6"/>
<line class="st6" x1="95.5" y1="42.3" x2="111" y2="42.3"/>
<line class="st6" x1="31.8" y1="43.3" x2="79.3" y2="43.3"/>
<line class="st6" x1="31.8" y1="48" x2="58.3" y2="48"/>
<line class="st6" x1="31.8" y1="67" x2="58.3" y2="67"/>
<line class="st6" x1="31.8" y1="52.7" x2="73.7" y2="52.7"/>
<line class="st6" x1="31.8" y1="57.5" x2="73.7" y2="57.5"/>
<line class="st6" x1="31.8" y1="62.2" x2="79.3" y2="62.2"/>
<line class="st6" x1="91.5" y1="49.5" x2="118.2" y2="49.5"/>
<line class="st6" x1="91.5" y1="53.4" x2="118.2" y2="53.4"/>
<line class="st6" x1="91.5" y1="57.2" x2="118.2" y2="57.2"/>
<line class="st6" x1="91.5" y1="61.3" x2="118.2" y2="61.3"/>
<line class="st6" x1="91.5" y1="65.3" x2="118.2" y2="65.3"/>
<line class="st6" x1="91.5" y1="69.8" x2="118.2" y2="69.8"/>
<line class="st6" x1="91.5" y1="74" x2="107.4" y2="74"/>
<text transform="matrix(1 0 0 1 31.7974 39.6031)" class="st7 st8 st9">Job Poot</text>
<rect x="31.8" y="74" class="st7" width="14.4" height="5.3"/>
<rect x="51.1" y="74" class="st7" width="14.4" height="5.3"/>
<text transform="matrix(1 0 0 1 89.6869 44.3304)" class="st7 st8 st10">$</text>
</svg>
