<?xml version="1.0" encoding="utf-8"?>
<!-- Generator: Adobe Illustrator 19.0.0, SVG Export Plug-In . SVG Version: 6.00 Build 0)  -->
<svg version="1.1" id="Layer_1" xmlns="http://www.w3.org/2000/svg" xmlns:xlink="http://www.w3.org/1999/xlink" x="0px" y="0px"
	 viewBox="0 0 70 70" style="enable-background:new 0 0 70 70;" xml:space="preserve">
<style type="text/css">
	.st0{fill:#3ecf8e;}
	.st1{fill:none;stroke:#FFFFFF;stroke-width:3;stroke-miterlimit:10;}
</style>
<circle id="XMLID_2_" class="st0" cx="35" cy="35" r="35"/>
<path id="XMLID_1_" class="st1" d="M28.2,17.1l25.5,14.7c2.2,1.3,2.2,4.5,0,5.7L28.2,52.3c-2.2,1.3-5-0.3-5-2.9V20
	C23.2,17.4,26,15.8,28.2,17.1z"/>
</svg>
