<?xml version="1.0" encoding="utf-8"?>
<!-- Generator: Adobe Illustrator 22.0.1, SVG Export Plug-In . SVG Version: 6.00 Build 0)  -->
<svg version="1.1" id="Layer_1" xmlns="http://www.w3.org/2000/svg" xmlns:xlink="http://www.w3.org/1999/xlink" x="0px" y="0px"
	 viewBox="0 0 150 150" style="enable-background:new 0 0 150 150;" xml:space="preserve">
<style type="text/css">
	.st0{clip-path:url(#SVGID_2_);}
	.st1{opacity:5.000000e-02;}
	.st2{fill:#95CB7A;}
</style>
<g>
	<g>
		<defs>
			
				<rect id="SVGID_1_" x="20.2" y="35.7" transform="matrix(0.4058 -0.914 0.914 0.4058 -20.4648 118.8001)" width="122" height="78.8"/>
		</defs>
		<clipPath id="SVGID_2_">
			<use xlink:href="#SVGID_1_"  style="overflow:visible;"/>
		</clipPath>
		<path class="st0" d="M94.2,129.3"/>
	</g>
</g>
<g>
	<g class="st1">
		<path d="M75,57c-11.6,0-21,9.4-21,21c0,11.6,9.4,21,21,21c11.6,0,21-9.4,21-21C96,66.4,86.6,57,75,57L75,57z M131.1,36h-16.8
			c-2.3,0-4.8-1.8-5.5-4l-4.4-13c-0.7-2.2-3.2-4-5.5-4H51.2c-2.3,0-4.8,1.8-5.5,4l-4.4,13c-0.7,2.2-3.2,4-5.5,4H18.9
			c-7.7,0-14,6.3-14,14v63.1c0,7.7,6.3,14,14,14h112.2c7.7,0,14-6.3,14-14V50C145.1,42.3,138.8,36,131.1,36L131.1,36z M75,113.1
			c-19.4,0-35-15.7-35-35c0-19.4,15.7-35,35-35c19.4,0,35,15.7,35,35C110,97.4,94.4,113.1,75,113.1L75,113.1z M126.2,59.8
			c-2.7,0-4.9-2.2-4.9-4.9c0-2.7,2.2-4.9,4.9-4.9c2.7,0,4.9,2.2,4.9,4.9C131.1,57.6,128.9,59.8,126.2,59.8L126.2,59.8z M126.2,59.8"
			/>
		<path d="M75,57c-11.6,0-21,9.4-21,21c0,11.6,9.4,21,21,21c11.6,0,21-9.4,21-21C96,66.4,86.6,57,75,57L75,57z M131.1,36h-16.8
			c-2.3,0-4.8-1.8-5.5-4l-4.4-13c-0.7-2.2-3.2-4-5.5-4H51.2c-2.3,0-4.8,1.8-5.5,4l-4.4,13c-0.7,2.2-3.2,4-5.5,4H18.9
			c-7.7,0-14,6.3-14,14v63.1c0,7.7,6.3,14,14,14h112.2c7.7,0,14-6.3,14-14V50C145.1,42.3,138.8,36,131.1,36L131.1,36z M75,113.1
			c-19.4,0-35-15.7-35-35c0-19.4,15.7-35,35-35c19.4,0,35,15.7,35,35C110,97.4,94.4,113.1,75,113.1L75,113.1z M126.2,59.8
			c-2.7,0-4.9-2.2-4.9-4.9c0-2.7,2.2-4.9,4.9-4.9c2.7,0,4.9,2.2,4.9,4.9C131.1,57.6,128.9,59.8,126.2,59.8L126.2,59.8z M126.2,59.8"
			/>
	</g>
	<g>
		<g>
			<path class="st2" d="M75,58c-11.6,0-21,9.4-21,21c0,11.6,9.4,21,21,21c11.6,0,21-9.4,21-21C96,67.4,86.6,58,75,58L75,58z
				 M131.1,37h-16.8c-2.3,0-4.8-1.8-5.5-4l-4.4-13c-0.7-2.2-3.2-4-5.5-4H51.2c-2.3,0-4.8,1.8-5.5,4l-4.4,13c-0.7,2.2-3.2,4-5.5,4
				H18.9c-7.7,0-14,6.3-14,14v63.1c0,7.7,6.3,14,14,14h112.2c7.7,0,14-6.3,14-14V51C145.1,43.3,138.8,37,131.1,37L131.1,37z
				 M75,114.1c-19.4,0-35-15.7-35-35c0-19.4,15.7-35,35-35c19.4,0,35,15.7,35,35C110,98.4,94.4,114.1,75,114.1L75,114.1z
				 M126.2,60.8c-2.7,0-4.9-2.2-4.9-4.9c0-2.7,2.2-4.9,4.9-4.9c2.7,0,4.9,2.2,4.9,4.9C131.1,58.6,128.9,60.8,126.2,60.8L126.2,60.8z
				 M126.2,60.8"/>
		</g>
		<g>
			<path class="st2" d="M75,58c-11.6,0-21,9.4-21,21c0,11.6,9.4,21,21,21c11.6,0,21-9.4,21-21C96,67.4,86.6,58,75,58L75,58z
				 M131.1,37h-16.8c-2.3,0-4.8-1.8-5.5-4l-4.4-13c-0.7-2.2-3.2-4-5.5-4H51.2c-2.3,0-4.8,1.8-5.5,4l-4.4,13c-0.7,2.2-3.2,4-5.5,4
				H18.9c-7.7,0-14,6.3-14,14v63.1c0,7.7,6.3,14,14,14h112.2c7.7,0,14-6.3,14-14V51C145.1,43.3,138.8,37,131.1,37L131.1,37z
				 M75,114.1c-19.4,0-35-15.7-35-35c0-19.4,15.7-35,35-35c19.4,0,35,15.7,35,35C110,98.4,94.4,114.1,75,114.1L75,114.1z
				 M126.2,60.8c-2.7,0-4.9-2.2-4.9-4.9c0-2.7,2.2-4.9,4.9-4.9c2.7,0,4.9,2.2,4.9,4.9C131.1,58.6,128.9,60.8,126.2,60.8L126.2,60.8z
				 M126.2,60.8"/>
		</g>
	</g>
</g>
</svg>
