<?xml version="1.0" encoding="utf-8"?>
<!-- Generator: Adobe Illustrator 22.0.1, SVG Export Plug-In . SVG Version: 6.00 Build 0)  -->
<svg version="1.1" id="Layer_1" xmlns="http://www.w3.org/2000/svg" xmlns:xlink="http://www.w3.org/1999/xlink" x="0px" y="0px"
	 viewBox="0 0 150 150" style="enable-background:new 0 0 150 150;" xml:space="preserve">
<style type="text/css">
	.st0{clip-path:url(#SVGID_2_);}
	.st1{opacity:5.000000e-02;}
	.st2{fill:#95CB7A;}
</style>
<g>
	<g>
		<defs>
			
				<rect id="SVGID_1_" x="20.2" y="35.7" transform="matrix(0.4058 -0.914 0.914 0.4058 -20.4648 118.8001)" width="122" height="78.8"/>
		</defs>
		<clipPath id="SVGID_2_">
			<use xlink:href="#SVGID_1_"  style="overflow:visible;"/>
		</clipPath>
		<path class="st0" d="M94.2,129.3"/>
	</g>
</g>
<g>
	<g class="st1">
		<path d="M88.5,126.8c-1.1,1.5-2.6,2.6-4.5,3.1l-9,2.4c-0.7,0.2-1.4,0.3-2.2,0.3c-1.6,0-3.2-0.5-4.6-1.4c-2-1.4-3.2-3.5-3.4-5.9
			l-0.8-9.3c-0.2-1.9,0.3-3.8,1.4-5.3l0.3-0.5H34c-2.6,0-4.7-2.1-4.7-4.7c0-2.6,2.1-4.7,4.7-4.7h38.7l8.6-12.3H34
			c-2.6,0-4.7-2.1-4.7-4.7c0-2.6,2.1-4.7,4.7-4.7l54-0.1l20.2-29V28.5c0-3.5-2.7-6.4-6.3-6.4H86.4v12.3c0,5.8-4.7,10.4-10.5,10.4
			H44.8c-5.8,0-10.4-4.6-10.4-10.4V22.1H18.7c-3.5,0-6.4,2.9-6.4,6.4v109.7c0,3.5,2.9,6.5,6.4,6.5h83.2c3.5,0,6.3-3,6.3-6.5V98.9
			L88.5,126.8z M34,57.4h52.7c2.6,0,4.7,2.1,4.7,4.7c0,2.6-2.1,4.7-4.7,4.7H34c-2.6,0-4.7-2.1-4.7-4.7C29.3,59.5,31.4,57.4,34,57.4
			L34,57.4z M34,57.4"/>
		<path d="M44.8,38.6H76c2.4,0,4.3-1.9,4.3-4.3V16.4c0-2.4-1.9-4.3-4.3-4.3h-4.7c0-6-4.9-10.9-11-10.9c-6,0-10.9,4.9-11,10.9h-4.5
			c-2.4,0-4.3,1.9-4.3,4.3v17.9C40.6,36.7,42.5,38.6,44.8,38.6L44.8,38.6z M60.3,7.3c2.7,0,4.8,2.2,4.9,4.8h-9.8
			C55.5,9.4,57.6,7.3,60.3,7.3L60.3,7.3z M60.3,7.3"/>
		<path d="M147.6,30c-0.1-0.8-0.6-1.5-1.3-2l-7.8-5.4c-0.5-0.4-1.1-0.5-1.7-0.5c-1,0-1.9,0.4-2.5,1.3l-55.2,79.2l12.7,8.9l55.2-79.2
			C147.5,31.6,147.7,30.8,147.6,30L147.6,30z M147.6,30"/>
		<path d="M70.4,115.5l0.8,9.3c0,0.5,0.3,1,0.8,1.3c0.3,0.2,0.7,0.3,1,0.3c0.2,0,0.3,0,0.5-0.1l9-2.5c0.4-0.1,0.8-0.4,1-0.7l3.4-4.8
			l-12.8-8.9l-3.4,4.8C70.5,114.7,70.3,115.1,70.4,115.5L70.4,115.5z M70.4,115.5"/>
		<path d="M88.5,126.8c-1.1,1.5-2.6,2.6-4.5,3.1l-9,2.4c-0.7,0.2-1.4,0.3-2.2,0.3c-1.6,0-3.2-0.5-4.6-1.4c-2-1.4-3.2-3.5-3.4-5.9
			l-0.8-9.3c-0.2-1.9,0.3-3.8,1.4-5.3l0.3-0.5H34c-2.6,0-4.7-2.1-4.7-4.7c0-2.6,2.1-4.7,4.7-4.7h38.7l8.6-12.3H34
			c-2.6,0-4.7-2.1-4.7-4.7c0-2.6,2.1-4.7,4.7-4.7l54-0.1l20.2-29V28.5c0-3.5-2.7-6.4-6.3-6.4H86.4v12.3c0,5.8-4.7,10.4-10.5,10.4
			H44.8c-5.8,0-10.4-4.6-10.4-10.4V22.1H18.7c-3.5,0-6.4,2.9-6.4,6.4v109.7c0,3.5,2.9,6.5,6.4,6.5h83.2c3.5,0,6.3-3,6.3-6.5V98.9
			L88.5,126.8z M34,57.4h52.7c2.6,0,4.7,2.1,4.7,4.7c0,2.6-2.1,4.7-4.7,4.7H34c-2.6,0-4.7-2.1-4.7-4.7C29.3,59.5,31.4,57.4,34,57.4
			L34,57.4z M34,57.4"/>
		<path d="M44.8,38.6H76c2.4,0,4.3-1.9,4.3-4.3V16.4c0-2.4-1.9-4.3-4.3-4.3h-4.7c0-6-4.9-10.9-11-10.9c-6,0-10.9,4.9-11,10.9h-4.5
			c-2.4,0-4.3,1.9-4.3,4.3v17.9C40.6,36.7,42.5,38.6,44.8,38.6L44.8,38.6z M60.3,7.3c2.7,0,4.8,2.2,4.9,4.8h-9.8
			C55.5,9.4,57.6,7.3,60.3,7.3L60.3,7.3z M60.3,7.3"/>
		<path d="M147.6,30c-0.1-0.8-0.6-1.5-1.3-2l-7.8-5.4c-0.5-0.4-1.1-0.5-1.7-0.5c-1,0-1.9,0.4-2.5,1.3l-55.2,79.2l12.7,8.9l55.2-79.2
			C147.5,31.6,147.7,30.8,147.6,30L147.6,30z M147.6,30"/>
		<path d="M70.4,115.5l0.8,9.3c0,0.5,0.3,1,0.8,1.3c0.3,0.2,0.7,0.3,1,0.3c0.2,0,0.3,0,0.5-0.1l9-2.5c0.4-0.1,0.8-0.4,1-0.7l3.4-4.8
			l-12.8-8.9l-3.4,4.8C70.5,114.7,70.3,115.1,70.4,115.5L70.4,115.5z M70.4,115.5"/>
	</g>
	<g>
		<g>
			<path class="st2" d="M88.5,127.8c-1.1,1.5-2.6,2.6-4.5,3.1l-9,2.4c-0.7,0.2-1.4,0.3-2.2,0.3c-1.6,0-3.2-0.5-4.6-1.4
				c-2-1.4-3.2-3.5-3.4-5.9l-0.8-9.3c-0.2-1.9,0.3-3.8,1.4-5.3l0.3-0.5H34c-2.6,0-4.7-2.1-4.7-4.7c0-2.6,2.1-4.7,4.7-4.7h38.7
				l8.6-12.3H34c-2.6,0-4.7-2.1-4.7-4.7c0-2.6,2.1-4.7,4.7-4.7l54-0.1l20.2-29V29.5c0-3.5-2.7-6.4-6.3-6.4H86.4v12.3
				c0,5.8-4.7,10.4-10.5,10.4H44.8c-5.8,0-10.4-4.6-10.4-10.4V23.1H18.7c-3.5,0-6.4,2.9-6.4,6.4v109.7c0,3.5,2.9,6.5,6.4,6.5h83.2
				c3.5,0,6.3-3,6.3-6.5V99.9L88.5,127.8z M34,58.4h52.7c2.6,0,4.7,2.1,4.7,4.7c0,2.6-2.1,4.7-4.7,4.7H34c-2.6,0-4.7-2.1-4.7-4.7
				C29.3,60.5,31.4,58.4,34,58.4L34,58.4z M34,58.4"/>
			<path class="st2" d="M44.8,39.6H76c2.4,0,4.3-1.9,4.3-4.3V17.4c0-2.4-1.9-4.3-4.3-4.3h-4.7c0-6-4.9-10.9-11-10.9
				c-6,0-10.9,4.9-11,10.9h-4.5c-2.4,0-4.3,1.9-4.3,4.3v17.9C40.6,37.7,42.5,39.6,44.8,39.6L44.8,39.6z M60.3,8.3
				c2.7,0,4.8,2.2,4.9,4.8h-9.8C55.5,10.4,57.6,8.3,60.3,8.3L60.3,8.3z M60.3,8.3"/>
			<path class="st2" d="M147.6,31c-0.1-0.8-0.6-1.5-1.3-2l-7.8-5.4c-0.5-0.4-1.1-0.5-1.7-0.5c-1,0-1.9,0.4-2.5,1.3l-55.2,79.2
				l12.7,8.9l55.2-79.2C147.5,32.6,147.7,31.8,147.6,31L147.6,31z M147.6,31"/>
			<path class="st2" d="M70.4,116.5l0.8,9.3c0,0.5,0.3,1,0.8,1.3c0.3,0.2,0.7,0.3,1,0.3c0.2,0,0.3,0,0.5-0.1l9-2.5
				c0.4-0.1,0.8-0.4,1-0.7l3.4-4.8l-12.8-8.9l-3.4,4.8C70.5,115.7,70.3,116.1,70.4,116.5L70.4,116.5z M70.4,116.5"/>
		</g>
		<g>
			<path class="st2" d="M88.5,127.8c-1.1,1.5-2.6,2.6-4.5,3.1l-9,2.4c-0.7,0.2-1.4,0.3-2.2,0.3c-1.6,0-3.2-0.5-4.6-1.4
				c-2-1.4-3.2-3.5-3.4-5.9l-0.8-9.3c-0.2-1.9,0.3-3.8,1.4-5.3l0.3-0.5H34c-2.6,0-4.7-2.1-4.7-4.7c0-2.6,2.1-4.7,4.7-4.7h38.7
				l8.6-12.3H34c-2.6,0-4.7-2.1-4.7-4.7c0-2.6,2.1-4.7,4.7-4.7l54-0.1l20.2-29V29.5c0-3.5-2.7-6.4-6.3-6.4H86.4v12.3
				c0,5.8-4.7,10.4-10.5,10.4H44.8c-5.8,0-10.4-4.6-10.4-10.4V23.1H18.7c-3.5,0-6.4,2.9-6.4,6.4v109.7c0,3.5,2.9,6.5,6.4,6.5h83.2
				c3.5,0,6.3-3,6.3-6.5V99.9L88.5,127.8z M34,58.4h52.7c2.6,0,4.7,2.1,4.7,4.7c0,2.6-2.1,4.7-4.7,4.7H34c-2.6,0-4.7-2.1-4.7-4.7
				C29.3,60.5,31.4,58.4,34,58.4L34,58.4z M34,58.4"/>
			<path class="st2" d="M44.8,39.6H76c2.4,0,4.3-1.9,4.3-4.3V17.4c0-2.4-1.9-4.3-4.3-4.3h-4.7c0-6-4.9-10.9-11-10.9
				c-6,0-10.9,4.9-11,10.9h-4.5c-2.4,0-4.3,1.9-4.3,4.3v17.9C40.6,37.7,42.5,39.6,44.8,39.6L44.8,39.6z M60.3,8.3
				c2.7,0,4.8,2.2,4.9,4.8h-9.8C55.5,10.4,57.6,8.3,60.3,8.3L60.3,8.3z M60.3,8.3"/>
			<path class="st2" d="M147.6,31c-0.1-0.8-0.6-1.5-1.3-2l-7.8-5.4c-0.5-0.4-1.1-0.5-1.7-0.5c-1,0-1.9,0.4-2.5,1.3l-55.2,79.2
				l12.7,8.9l55.2-79.2C147.5,32.6,147.7,31.8,147.6,31L147.6,31z M147.6,31"/>
			<path class="st2" d="M70.4,116.5l0.8,9.3c0,0.5,0.3,1,0.8,1.3c0.3,0.2,0.7,0.3,1,0.3c0.2,0,0.3,0,0.5-0.1l9-2.5
				c0.4-0.1,0.8-0.4,1-0.7l3.4-4.8l-12.8-8.9l-3.4,4.8C70.5,115.7,70.3,116.1,70.4,116.5L70.4,116.5z M70.4,116.5"/>
		</g>
	</g>
</g>
</svg>
