<?xml version="1.0" encoding="utf-8"?>
<!-- Generator: Adobe Illustrator 22.0.1, SVG Export Plug-In . SVG Version: 6.00 Build 0)  -->
<svg version="1.1" id="Layer_1" xmlns="http://www.w3.org/2000/svg" xmlns:xlink="http://www.w3.org/1999/xlink" x="0px" y="0px"
	 viewBox="0 0 150 150" style="enable-background:new 0 0 150 150;" xml:space="preserve">
<style type="text/css">
	.st0{fill:none;stroke:#939598;stroke-width:2;stroke-miterlimit:10;}
	.st1{fill:none;stroke:#8DC63F;stroke-width:2;stroke-miterlimit:10;}
	.st2{fill:none;stroke:#808285;stroke-width:2;stroke-miterlimit:10;}
	.st3{fill:#939598;}
	.st4{fill:#00AEEF;}
	.st5{fill:#FFFFFF;}
	.st6{font-family:'HindMadurai-SemiBold';}
	.st7{font-size:7.4826px;}
	.st8{fill:#95CB7B;}
	.st9{fill:#808285;}
</style>
<g>
	<line class="st0" x1="58.6" y1="27.6" x2="87.7" y2="27.6"/>
	<line class="st0" x1="71" y1="32" x2="98.9" y2="32"/>
	<line class="st0" x1="57.9" y1="36.3" x2="80.4" y2="36.3"/>
	<line class="st0" x1="58.6" y1="32" x2="66.1" y2="32"/>
	<line class="st0" x1="86.4" y1="36.3" x2="93.9" y2="36.3"/>
</g>
<g>
	<line class="st1" x1="58.6" y1="65.3" x2="87.7" y2="65.3"/>
	<line class="st1" x1="71" y1="69.7" x2="98.9" y2="69.7"/>
	<line class="st1" x1="57.9" y1="74.1" x2="80.4" y2="74.1"/>
	<line class="st1" x1="58.6" y1="69.7" x2="66.1" y2="69.7"/>
	<line class="st1" x1="86.4" y1="74.1" x2="93.9" y2="74.1"/>
</g>
<g>
	<line class="st2" x1="58.6" y1="103.6" x2="87.7" y2="103.6"/>
	<line class="st2" x1="71" y1="107.9" x2="98.9" y2="107.9"/>
	<line class="st2" x1="57.9" y1="112.3" x2="80.4" y2="112.3"/>
	<line class="st2" x1="58.6" y1="107.9" x2="66.1" y2="107.9"/>
	<line class="st2" x1="86.4" y1="112.3" x2="93.9" y2="112.3"/>
</g>
<path class="st3" d="M23.9,18.1c-7.6,0-13.9,6.2-13.9,13.9s6.2,13.9,13.9,13.9S37.8,39.6,37.8,32S31.6,18.1,23.9,18.1z M23.9,19.8
	c6.8,0,12.1,5.4,12.1,12.1c0,3-1,5.6-2.8,7.6c-0.5-0.2-0.9-0.5-1.4-0.5l-3.8-0.7c-0.3,0-0.7-0.5-0.7-0.9v-0.9
	c0.2-0.3,0.5-0.9,0.7-1.2c0.2-0.3,0.5-0.9,0.7-1c0.7-0.7,1.6-1.6,1.7-2.8c0.2-1,0-1.6-0.2-2.1c0-1,0-2.4-0.3-3.5
	c0-1.4-0.3-2.1-0.9-2.8c-0.5-0.5-1-0.5-1.6-0.7c-0.2,0-0.5,0-0.5-0.2c-1.2-0.5-2.1-0.9-3.1-0.9c-2.3,0.2-5.2,1.6-6.1,4.2
	c-0.3,0.7-0.3,2.1-0.2,3.1v0.7c-0.3,0.3-0.5,0.9-0.3,1.9s1,1.9,1.7,2.8c0.2,0.2,0.3,0.7,0.7,1c0.2,0.5,0.5,0.9,0.7,1.2v0.9
	c0,0.3-0.3,0.7-0.7,0.9L16,38.9c-0.5,0.2-1,0.3-1.4,0.5c-1.7-1.9-2.8-4.5-2.8-7.5C11.8,25.2,17.2,19.8,23.9,19.8z"/>
<path class="st4" d="M23.9,55.3c-7.6,0-13.9,6.2-13.9,13.9s6.2,13.9,13.9,13.9s13.9-6.2,13.9-13.9S31.6,55.3,23.9,55.3z M23.9,57.1
	c6.8,0,12.1,5.4,12.1,12.1c0,3-1,5.6-2.8,7.6c-0.5-0.2-0.9-0.5-1.4-0.5l-3.8-0.7c-0.3,0-0.7-0.5-0.7-0.9v-0.9
	c0.2-0.3,0.5-0.9,0.7-1.2c0.2-0.3,0.5-0.9,0.7-1c0.7-0.7,1.6-1.6,1.7-2.8c0.2-1,0-1.6-0.2-2.1c0-1,0-2.4-0.3-3.5
	c0-1.4-0.3-2.1-0.9-2.8c-0.5-0.5-1-0.5-1.6-0.7c-0.2,0-0.5,0-0.5-0.2c-1.2-0.5-2.1-0.9-3.1-0.9c-2.3,0.2-5.2,1.6-6.1,4.2
	c-0.3,0.7-0.3,2.1-0.2,3.1v0.7c-0.3,0.3-0.5,0.9-0.3,1.9s1,1.9,1.7,2.8c0.2,0.2,0.3,0.7,0.7,1c0.2,0.5,0.5,0.9,0.7,1.2v0.9
	c0,0.3-0.3,0.7-0.7,0.9L16,76.2c-0.5,0.2-1,0.3-1.4,0.5c-1.7-1.9-2.8-4.5-2.8-7.5C11.8,62.5,17.2,57.1,23.9,57.1z"/>
<path class="st3" d="M23.9,94c-7.6,0-13.9,6.2-13.9,13.9s6.2,13.9,13.9,13.9s13.9-6.2,13.9-13.9S31.6,94,23.9,94z M23.9,95.8
	c6.8,0,12.1,5.4,12.1,12.1c0,3-1,5.6-2.8,7.6c-0.5-0.2-0.9-0.5-1.4-0.5l-3.8-0.7c-0.3,0-0.7-0.5-0.7-0.9v-0.9
	c0.2-0.3,0.5-0.9,0.7-1.2c0.2-0.3,0.5-0.9,0.7-1c0.7-0.7,1.6-1.6,1.7-2.8c0.2-1,0-1.6-0.2-2.1c0-1,0-2.4-0.3-3.5
	c0-1.4-0.3-2.1-0.9-2.8c-0.5-0.5-1-0.5-1.6-0.7c-0.2,0-0.5,0-0.5-0.2c-1.2-0.5-2.1-0.9-3.1-0.9c-2.3,0.2-5.2,1.6-6.1,4.2
	c-0.3,0.7-0.3,2.1-0.2,3.1v0.7c-0.3,0.3-0.5,0.9-0.3,1.9s1,1.9,1.7,2.8c0.2,0.2,0.3,0.7,0.7,1c0.2,0.5,0.5,0.9,0.7,1.2v0.9
	c0,0.3-0.3,0.7-0.7,0.9l-3.8,0.7c-0.5,0.2-1,0.3-1.4,0.5c-1.7-1.9-2.8-4.5-2.8-7.5C11.8,101.2,17.2,95.8,23.9,95.8z"/>
<rect x="108.4" y="27.6" class="st3" width="29.6" height="8.2"/>
<text transform="matrix(1 0 0 1 116.7465 33.7514)" class="st5 st6 st7">Hire</text>
<path class="st3" d="M137.8,112h-29.2c-0.1,0-0.2-0.1-0.2-0.2V104c0-0.1,0.1-0.2,0.2-0.2h29.2c0.1,0,0.2,0.1,0.2,0.2v7.8
	C138,111.9,137.9,112,137.8,112z"/>
<text transform="matrix(1 0 0 1 116.7465 110.0029)" class="st5 st6 st7">Hire</text>
<path class="st8" d="M137.6,73.3h-28.8c-0.2,0-0.4-0.2-0.4-0.4v-7.3c0-0.2,0.2-0.4,0.4-0.4h28.8c0.2,0,0.4,0.2,0.4,0.4v7.3
	C138,73.1,137.8,73.3,137.6,73.3z"/>
<text transform="matrix(1 0 0 1 116.7465 71.3017)" class="st5 st6 st7">Hire</text>
<path class="st9" d="M140.6,78.6l-5.5-5.5c-0.1-0.1-0.2-0.1-0.3-0.1c-0.1,0-0.2,0.1-0.2,0.3v7.5c0,0.1,0.1,0.2,0.2,0.2
	c0.1,0,0.2,0,0.3,0l1.4-1.1l1.2,2.2c0.1,0.1,0.1,0.1,0.2,0.1c0,0,0.1,0,0.1,0l1.6-0.8c0.1,0,0.1-0.1,0.1-0.2c0-0.1,0-0.1,0-0.2
	l-1.1-2h1.7c0.1,0,0.2-0.1,0.3-0.2C140.7,78.8,140.6,78.7,140.6,78.6z"/>
<path class="st9" d="M134.9,71.4c-0.2,0-0.3-0.1-0.3-0.3v-1.6c0-0.2,0.1-0.3,0.3-0.3c0.2,0,0.3,0.1,0.3,0.3v1.6
	C135.2,71.3,135.1,71.4,134.9,71.4z"/>
<path class="st9" d="M132.7,73.6h-1.6c-0.2,0-0.3-0.1-0.3-0.3c0-0.2,0.1-0.3,0.3-0.3h1.6c0.2,0,0.3,0.1,0.3,0.3
	C133,73.5,132.9,73.6,132.7,73.6z"/>
<path class="st9" d="M138.7,73.6h-1.6c-0.2,0-0.3-0.1-0.3-0.3c0-0.2,0.1-0.3,0.3-0.3h1.6c0.2,0,0.3,0.1,0.3,0.3
	C139,73.5,138.9,73.6,138.7,73.6z"/>
<path class="st9" d="M133.4,72c-0.1,0-0.1,0-0.2-0.1l-1.2-1.2c-0.1-0.1-0.1-0.3,0-0.4c0.1-0.1,0.3-0.1,0.4,0l1.2,1.2
	c0.1,0.1,0.1,0.3,0,0.4C133.5,72,133.4,72,133.4,72z"/>
<path class="st9" d="M132.2,76.3c-0.1,0-0.1,0-0.2-0.1c-0.1-0.1-0.1-0.3,0-0.4l1.2-1.2c0.1-0.1,0.3-0.1,0.4,0c0.1,0.1,0.1,0.3,0,0.4
	l-1.2,1.2C132.3,76.3,132.3,76.3,132.2,76.3z"/>
<path class="st9" d="M136.4,72c-0.1,0-0.1,0-0.2-0.1c-0.1-0.1-0.1-0.3,0-0.4l1.2-1.2c0.1-0.1,0.3-0.1,0.4,0c0.1,0.1,0.1,0.3,0,0.4
	l-1.2,1.2C136.6,72,136.5,72,136.4,72z"/>
</svg>
