<?xml version="1.0" encoding="utf-8"?>
<!-- Generator: Adobe Illustrator 22.0.1, SVG Export Plug-In . SVG Version: 6.00 Build 0)  -->
<svg version="1.1" id="Layer_1" xmlns="http://www.w3.org/2000/svg" xmlns:xlink="http://www.w3.org/1999/xlink" x="0px" y="0px"
	 viewBox="0 0 150 150" style="enable-background:new 0 0 150 150;" xml:space="preserve">
<style type="text/css">
	.st0{clip-path:url(#SVGID_2_);}
	.st1{opacity:5.000000e-02;}
	.st2{fill:#3ecf8e;}
</style>
<g>
	<g>
		<defs>

				<rect id="SVGID_1_" x="17.5" y="34" transform="matrix(0.4058 -0.914 0.914 0.4058 -20.4648 118.8001)" width="127.3" height="82.3"/>
		</defs>
		<clipPath id="SVGID_2_">
			<use xlink:href="#SVGID_1_"  style="overflow:visible;"/>
		</clipPath>
		<path class="st0" d="M94.7,131.7"/>
	</g>
</g>
<g>
	<g class="st1">
		<path d="M99.8,41.7v16.8h5.6V41.7c9.5-0.4,16.9-2.7,16.9-5.5s-7.5-5.1-16.9-5.5v-2.9c0-1.5-1.2-2.8-2.8-2.8s-2.8,1.2-2.8,2.8v2.9
			c-9.5,0.4-16.7,2.7-16.7,5.5S90.4,41.3,99.8,41.7z"/>
	</g>
	<g>
		<path class="st2" d="M99.8,42.7v16.8h5.6V42.7c9.5-0.4,16.9-2.7,16.9-5.5s-7.5-5.1-16.9-5.5v-2.9c0-1.5-1.2-2.8-2.8-2.8
			s-2.8,1.2-2.8,2.8v2.9c-9.5,0.4-16.7,2.7-16.7,5.5S90.4,42.3,99.8,42.7z"/>
	</g>
</g>
<path class="st2" d="M74.7,98.7c1.5,0,2.8-1.3,2.8-2.8s-1.3-2.8-2.8-2.8s-2.8,1.3-2.8,2.8S73.2,98.7,74.7,98.7z"/>
<path class="st2" d="M74.7,115.7c10.8,0,19.5-8.9,19.5-19.7s-8.8-19.5-19.5-19.5s-19.5,8.8-19.5,19.5S64,115.7,74.7,115.7z
	 M74.7,87.6c4.6,0,8.4,3.8,8.4,8.4c0,4.6-3.8,8.4-8.4,8.4s-8.4-3.8-8.4-8.4C66.4,91.3,70.1,87.6,74.7,87.6z"/>
<path class="st2" d="M44,42.7v16.8h5.6V42.7c9.5-0.4,16.7-2.7,16.7-5.5s-7.3-5.1-16.7-5.5v-2.9c0-1.5-1.2-2.8-2.8-2.8
	c-1.5,0-2.8,1.2-2.8,2.8v2.9c-9.5,0.4-16.9,2.7-16.9,5.5S34.6,42.3,44,42.7z"/>
<path class="st2" d="M29.9,98.7h8.6v19.7c0,1.5,1.2,2.8,2.8,2.8c1.5,0,2.8-1.2,2.8-2.8V98.7h5.9c-0.1-0.9-0.3-1.8-0.3-2.8
	c0-5.2,1.6-10,4.3-13.9h-24c-1.5,0-2.8,1.2-2.8,2.8v11.2C27.1,97.5,28.4,98.7,29.9,98.7z"/>
<path class="st2" d="M122.3,95.9V84.8c0-1.5-1.2-2.8-2.8-2.8h-24c2.7,4,4.3,8.8,4.3,13.9c0,1-0.2,1.9-0.3,2.8h5.9v19.7
	c0,1.5,1.2,2.8,2.8,2.8c1.5,0,2.8-1.2,2.8-2.8V98.7h8.6C121.1,98.7,122.3,97.5,122.3,95.9z"/>
<path class="st2" d="M116.8,76.4v-8.4c0-1.5-1.4-2.8-3-2.8H85.9c-1.5,0-2.8,1.2-2.8,2.8v4.3c2.6,0.9,5.1,2.3,7.2,4H116.8z"/>
<path class="st2" d="M66.4,68.1c0-1.5-1.2-2.8-2.8-2.8H35.7c-1.5,0-2.8,1.2-2.8,2.8v8.4h26.3c2.2-1.7,4.6-3.1,7.2-4V68.1z"/>
<path class="st2" d="M55.2,53.9c0,2.8,7.3,5.1,16.7,5.5v11.7c0.9-0.1,1.8-0.3,2.8-0.3c1,0,1.9,0.2,2.8,0.3V59.4
	c9.5-0.4,16.7-2.7,16.7-5.5c0-2.8-7.3-5.1-16.7-5.5v-2.9c0-1.5-1.2-2.8-2.8-2.8c-1.5,0-2.8,1.2-2.8,2.8v2.9
	C62.5,48.8,55.2,51.1,55.2,53.9z"/>
</svg>
